Date,Description,Original Description,Amount,Type,Category,Account Name
5/16/2014,Margon Restaurant,MARGON RESTAURANT,10.9,debit,Restaurants,CREDIT CARD
5/15/2014,Sq Moo Shu,SQ *MOO SHU GRILL,10,debit,Restaurants,CREDIT CARD
5/14/2014,Shop Rite,SHOPRITE METRO PLZA S1,24.09,debit,Groceries,CREDIT CARD
5/14/2014,Food World,FOOD WORLD,9.2,debit,Groceries,CREDIT CARD
5/13/2014,Cafe,CAFE MANHATTAN,8.06,debit,Restaurants,CREDIT CARD
5/13/2014,Pret A Manger,PRET MANGER 44,8.15,debit,Fast Food,CREDIT CARD
5/12/2014,Starbucks,STARBUCKS #07383 JERSEY C,1.87,debit,Coffee Shops,CREDIT CARD
5/11/2014,Margon Restaurant,MARGON RESTAURANT,10.9,debit,Restaurants,CREDIT CARD
5/11/2014,Duane Reade,DUANE READE #14306,19.65,debit,Pharmacy,CREDIT CARD
5/11/2014,Sq Warehouse Cafe,SQ *THE WAREHOUSE CAFE,2.5,debit,Restaurants,CREDIT CARD
5/11/2014,Sq Warehouse Cafe,SQ *THE WAREHOUSE CAFE,11.25,debit,Restaurants,CREDIT CARD
5/11/2014,Starbucks,STARBUCKS #07383 JERSEY C,1.61,debit,Coffee Shops,CREDIT CARD
5/7/2014,Hale Hearty So,HALE AND HEARTY SO,8.15,debit,Restaurants,CREDIT CARD
5/5/2014,Sq Warehouse Cafe,SQ *THE WAREHOUSE CAFE,5.5,debit,Restaurants,CREDIT CARD
5/5/2014,Stumptown Coffee Roasters,STUMPTOWN COFFEE ROASTERS,9,debit,Coffee Shops,CREDIT CARD
5/5/2014,Bcd Tofu House,BCD TOFU HOUSE,37.64,debit,Restaurants,CREDIT CARD
5/5/2014,Miss Korea,MISS KOREA,24,debit,Restaurants,CREDIT CARD
5/5/2014,Paris Baguette New,PARIS BAGUETTE-NEW YOR,17.04,debit,Bakery,CREDIT CARD
5/4/2014,Food World,FOOD WORLD,9.53,debit,Groceries,CREDIT CARD
5/4/2014,Margon Restaurant,MARGON RESTAURANT,13.65,debit,Restaurants,CREDIT CARD
5/2/2014,Ko Ko Asian,KO KO ASIAN FUSION,22.05,debit,Restaurants,CREDIT CARD
5/2/2014,Linode,LINODE.COM,20,debit,Business Services,CREDIT CARD
5/1/2014,Amazon,AMAZON MKTPLACE PMTS,19.73,debit,Shopping,CREDIT CARD
4/30/2014,Chipotle,CHIPOTLE 1178,9,debit,Fast Food,CREDIT CARD
4/29/2014,Hing Won,HING WON,7.5,debit,Restaurants,CREDIT CARD
4/28/2014,Botanicgardnco,BROOKLYNBOTANICGARDNCO,40,debit,Amusement,CREDIT CARD
4/27/2014,Margon Restaurant,MARGON RESTAURANT,7.65,debit,Restaurants,CREDIT CARD
4/27/2014,iTunes,APL*APPLE ITUNES STORE,5.34,debit,Music,CREDIT CARD
4/24/2014,Pret A Manger,PRET MANGER 44,1.91,debit,Fast Food,CREDIT CARD
4/24/2014,Food World,FOOD WORLD,8.87,debit,Groceries,CREDIT CARD
4/23/2014,Hale Hearty So,HALE AND HEARTY SO,8.15,debit,Restaurants,CREDIT CARD
4/22/2014,Verizon,VERIZON*RECURRING PAY,34.99,debit,Home Phone,CREDIT CARD
4/22/2014,Amazon,AMAZON MKTPLACE PMTS,70.78,debit,Shopping,CREDIT CARD
4/22/2014,Amazon,AMAZON MKTPLACE PMTS,12.48,debit,Shopping,CREDIT CARD
4/22/2014,Food World,FOOD WORLD,8.11,debit,Groceries,CREDIT CARD
4/21/2014,Sq Warehouse Cafe,SQ *THE WAREHOUSE CAFE,20.5,debit,Restaurants,CREDIT CARD
4/21/2014,Tous Les Jours,TOUS LES JOURS,13.25,debit,Bakery,CREDIT CARD
4/21/2014,Satay Malaysian Cuisin,SATAY MALAYSIAN CUISIN,25.4,debit,Restaurants,CREDIT CARD
4/20/2014,Margon Restaurant,MARGON RESTAURANT,10.9,debit,Restaurants,CREDIT CARD
4/20/2014,iTunes,APL*APPLE ITUNES STORE,5.34,debit,Music,CREDIT CARD
4/17/2014,Sophies Cuban Cuisine,SOPHIES CUBAN CUISINE,9.24,debit,Restaurants,CREDIT CARD
4/17/2014,Sze Chuan Gourmet,SZE CHUAN GOURMET,14.66,debit,Restaurants,CREDIT CARD
4/16/2014,iTunes,APL*APPLE ITUNES STORE,53.49,debit,Music,CREDIT CARD
4/15/2014,Food World,FOOD WORLD,8.11,debit,Groceries,CREDIT CARD
4/14/2014,Shop Rite,SHOPRITE METRO PLZA S1,39.13,debit,Groceries,CREDIT CARD
4/14/2014,Kori Tribeca,KORI - TRIBECA,29.83,debit,Restaurants,CREDIT CARD
4/13/2014,Amazon,AMAZON MKTPLACE PMTS,13.35,debit,Shopping,CREDIT CARD
4/13/2014,Chipotle,CHIPOTLE 1178,9,debit,Fast Food,CREDIT CARD
4/13/2014,Chop N Toss,CHOP-N-TOSS BAR & EATERY,11.5,debit,Restaurants,CREDIT CARD
4/11/2014,Potbelly Sandwich Works,POTBELLY 291,6.42,debit,Fast Food,CREDIT CARD
4/10/2014,Minar,MINAR,9.25,debit,Restaurants,CREDIT CARD
4/8/2014,USPS,USPS359632955222807002,2.38,debit,Shipping,CREDIT CARD
4/8/2014,USPS,USPS359632955222807002,9.4,debit,Shipping,CREDIT CARD
4/8/2014,iTunes,APL*APPLE ITUNES STORE,4.27,debit,Music,CREDIT CARD
4/8/2014,Cafe,CAFE MANHATTAN,8.43,debit,Restaurants,CREDIT CARD
4/8/2014,Food World,FOOD WORLD,9.53,debit,Groceries,CREDIT CARD
4/7/2014,Satay Malaysian Cuisin,SATAY MALAYSIAN CUISIN,27.55,debit,Restaurants,CREDIT CARD
4/6/2014,Taste India Newport,TASTE OF INDIA NEWPORT,9.24,debit,Restaurants,CREDIT CARD
4/6/2014,Sophies Cuban Cuisine,SOPHIES CUBAN CUISINE,9.24,debit,Restaurants,CREDIT CARD
4/6/2014,Bath & Body Works,BATH & BODY WORKS 0537,18.63,debit,Spa & Massage,CREDIT CARD
4/6/2014,Europa Cafe,EUROPA CAFE,1.91,debit,Restaurants,CREDIT CARD
4/3/2014,Linode,LINODE.COM,20,debit,Business Services,CREDIT CARD
4/3/2014,Amazon,Amazon.com,10.07,debit,Shopping,CREDIT CARD
4/3/2014,Food World,FOOD WORLD,9.2,debit,Groceries,CREDIT CARD
4/2/2014,Amazon,AMAZON MKTPLACE PMTS,6.76,debit,Shopping,CREDIT CARD
4/2/2014,Pony Bar,THE PONY BAR,15.07,debit,Alcohol & Bars,CREDIT CARD
4/1/2014,Utsav Restaurant,UTSAV RESTAURANT,50.44,debit,Restaurants,CREDIT CARD
4/1/2014,USPS,USPS 35963200332803116,15.29,debit,Shipping,CREDIT CARD
4/1/2014,Shop Rite,SHOPRITE METRO PLZA S1,37.21,debit,Groceries,CREDIT CARD
3/31/2014,Starbucks,STARBUCKS #14241 NEW YORK,2.56,debit,Coffee Shops,CREDIT CARD
3/30/2014,Sq Warehouse Cafe,SQ *THE WAREHOUSE CAFE,7,debit,Restaurants,CREDIT CARD
3/30/2014,Sq Warehouse Cafe,SQ *THE WAREHOUSE CAFE,2.75,debit,Restaurants,CREDIT CARD
3/30/2014,iTunes,APL*APPLE ITUNES STORE,1.06,debit,Music,CREDIT CARD
3/28/2014,Minar,MINAR,11.38,debit,Restaurants,CREDIT CARD
3/27/2014,Potbelly Sandwich Works,POTBELLY 291,6.42,debit,Fast Food,CREDIT CARD
3/26/2014,Chipotle,CHIPOTLE 1178,9,debit,Fast Food,CREDIT CARD
3/25/2014,Tous Les Jours,TOUS LES JOURS,38.85,debit,Bakery,CREDIT CARD
3/25/2014,Food World,FOOD WORLD,11.14,debit,Groceries,CREDIT CARD
3/24/2014,Paris Baguette New,PARIS BAGUETTE-NEW YOR,13.3,debit,Bakery,CREDIT CARD
3/24/2014,Breslin Bar Dining,THE BRESLIN BAR & DINING,79.14,debit,Restaurants,CREDIT CARD
3/24/2014,Bcd Tofu House,BCD TOFU HOUSE,17.73,debit,Restaurants,CREDIT CARD
3/23/2014,Wu Liang Ye,WU LIANG YE,23.6,debit,Restaurants,CREDIT CARD
3/23/2014,Gahm Mi Oak,GAHM MI OAK,48.08,debit,Restaurants,CREDIT CARD
3/23/2014,Amazon,AMAZON MKTPLACE PMTS,16.87,debit,Shopping,CREDIT CARD
3/20/2014,Verizon,VERIZON*RECURRING PAY,41.99,debit,Home Phone,CREDIT CARD
3/18/2014,City Cafe Ranch,CITY CAFE RANCH 1,8.66,debit,Restaurants,CREDIT CARD
3/17/2014,Shop Rite,SHOPRITE METRO PLZA S1,1.54,debit,Groceries,CREDIT CARD
3/17/2014,Paris Baguette New,PARIS BAGUETTE-NEW YOR,10.51,debit,Uncategorized,CREDIT CARD
3/17/2014,Shop Rite,SHOPRITE METRO PLZA S1,62.27,debit,Groceries,CREDIT CARD
3/16/2014,Arirang Restaurant,ARIRANG RESTAURANT,34.38,debit,Restaurants,CREDIT CARD
3/16/2014,Minar,MINAR,9.74,debit,Uncategorized,CREDIT CARD
3/16/2014,Amazon,AMAZON MKTPLACE PMTS,19.29,debit,Shopping,CREDIT CARD
3/14/2014,Food World,FOOD WORLD,9.2,debit,Groceries,CREDIT CARD
"3/13/2014","Chipotle","CHIPOTLE 1178","9.00","debit","Fast Food","CREDIT CARD","",""
"3/11/2014","Food World","FOOD WORLD","9.53","debit","Groceries","CREDIT CARD","",""
"3/10/2014","Margon Restaurant","MARGON RESTAURANT","10.90","debit","Restaurants","CREDIT CARD","",""
"3/10/2014","Amazon","Amazon.com","42.79","debit","Shopping","CREDIT CARD","",""
"3/10/2014","Taste India Newport","TASTE OF INDIA NEWPORT","12.85","debit","Restaurants","CREDIT CARD","",""
"3/09/2014","Afm","AFM OF JERSEY CITY","19.25","debit","Uncategorized","CREDIT CARD","",""
"3/09/2014","IKEA","IKEA ELIZABETH","11.75","debit","Furnishings","CREDIT CARD","",""
"3/06/2014","Sophies Cuban Cuisine","SOPHIES CUBAN CUISINE","11.42","debit","Restaurants","CREDIT CARD","",""
"3/06/2014","Europa Cafe","EUROPA CAFE","2.36","debit","Restaurants","CREDIT CARD","",""
"3/06/2014","Dof Convenience Fee","DOF/CONVENIENCE FEE","2.86","debit","Fees & Charges","CREDIT CARD","",""
"3/05/2014","Hing Won","HING WON","8.00","debit","Uncategorized","CREDIT CARD","",""
"3/04/2014","Amazon Kindle","Amazon Services-Kindle","15.45","debit","Books","CREDIT CARD","",""
"3/04/2014","Food World","FOOD WORLD","7.65","debit","Groceries","CREDIT CARD","",""
"3/03/2014","Shop Rite","SHOPRITE METRO PLZA S1","59.97","debit","Groceries","CREDIT CARD","",""
"3/03/2014","Bed Bath & Beyond","BED BATH & BEYOND #627","46.52","debit","Furnishings","CREDIT CARD","",""
"3/02/2014","Linode","LINODE.COM","20.00","debit","Business Services","CREDIT CARD","",""
"3/02/2014","Shop Rite","SHOPRITE LIQUOR ME","12.83","debit","Groceries","CREDIT CARD","",""
"3/02/2014","Starbucks","STARBUCKS #07383 JERSEY C","15.89","debit","Coffee Shops","CREDIT CARD","",""
"3/02/2014","Grand Sichuan","GRAND SICHUAN JERSEY CIT","41.89","debit","Restaurants","CREDIT CARD","",""
"3/02/2014","Cafe","CAFE MANHATTAN","7.89","debit","Restaurants","CREDIT CARD","",""
"3/02/2014","USPS","USPS CHANGE OF66100959","1.05","debit","Shipping","CREDIT CARD","",""
"3/02/2014","Bed Bath & Beyond","BED BATH & BEYOND #627","31.04","debit","Furnishings","CREDIT CARD","",""
"3/02/2014","Shop Rite","SHOPRITE METRO PLZA S1","42.04","debit","Groceries","CREDIT CARD","",""
"3/02/2014","USPS","USPS CHANGE OF66100959","1.05","debit","Shipping","CREDIT CARD","",""
"2/27/2014","Laz Parking","LAZ PARKING 590806","3.00","debit","Parking","CREDIT CARD","",""
"2/27/2014","Www Dashingd Js","WWW.DASHINGD3JS.COM","9.00","debit","Uncategorized","CREDIT CARD","",""
"2/27/2014","Chipotle","CHIPOTLE 1178","11.25","debit","Fast Food","CREDIT CARD","",""
"2/26/2014","Sq Raffaello","SQ *RAFFAELLO","9.75","debit","Uncategorized","CREDIT CARD","",""
"2/24/2014","Sq Babo Teahouse","SQ *BABO TEAHOUSE","19.05","debit","Uncategorized","CREDIT CARD","",""
"2/24/2014","Junoon","JUNOON","130.14","debit","Restaurants","CREDIT CARD","",""
"2/24/2014","Starbucks","STARBUCKS #19500 JERSEY C","3.16","debit","Coffee Shops","CREDIT CARD","",""
"2/23/2014","Amazon Kindle","Amazon Services-Kindle","17.64","debit","Books","CREDIT CARD","",""
"2/23/2014","Chipotle","CHIPOTLE 1178","9.00","debit","Fast Food","CREDIT CARD","",""
"2/20/2014","Amazon","AMAZON MKTPLACE PMTS","16.95","debit","Shopping","CREDIT CARD","",""
"2/20/2014","City Cafe Ranch","CITY CAFE RANCH 1","7.89","debit","Restaurants","CREDIT CARD","",""
"2/18/2014","Amazon","Amazon.com","42.78","debit","Shopping","CREDIT CARD","",""
"2/18/2014","Hess","HESS 30503","50.39","debit","Gas & Fuel","CREDIT CARD","",""
"2/17/2014","Margon Restaurant","MARGON RESTAURANT","10.90","debit","Restaurants","CREDIT CARD","",""
"2/17/2014","AMC","AMC EMPIRE 25 #0552","29.00","debit","Movies & DVDs","CREDIT CARD","",""
"2/16/2014","Linode","LINODE.COM","10.00","debit","Business Services","CREDIT CARD","",""
"2/16/2014","Mortn Willms Nvysj","MORTN WILLMS NVYSJ7","36.71","debit","Groceries","CREDIT CARD","",""
"2/16/2014","Shake Shack 44th","SHAKE SHACK 44TH ST","18.46","debit","Uncategorized","CREDIT CARD","",""